OPEN    : 'empty='a';'
BEGIN   : position:(c:0 m:0) targetchar='e'  	| parser://org.unlaxer.vocabulary.ebnf.informally.Syntax
BEGIN   : position:(c:0 m:0) targetchar='e'  	| parser://org.unlaxer.vocabulary.ebnf.informally.SyntaxRule
BEGIN   : position:(c:0 m:0) targetchar='e'  	| parser://org.unlaxer.vocabulary.ebnf.informally.Comments
BEGIN   : position:(c:0 m:0) targetchar='e'  	| parser://org.unlaxer.vocabulary.ebnf.informally.CommentOrSpaceDelimitor
BEGIN   : position:(c:0 m:0) targetchar='e'  	| parser://org.unlaxer.vocabulary.ebnf.informally.Comment
ROLLBACK: position:(c:0 m:0) targetchar='e'  	| parser://org.unlaxer.vocabulary.ebnf.informally.Comment | rollbacked: 
ROLLBACK: position:(c:0 m:0) targetchar='e'  	| parser://org.unlaxer.vocabulary.ebnf.informally.CommentOrSpaceDelimitor | rollbacked: 
BEGIN   : position:(c:0 m:0) targetchar='e'  	| parser://org.unlaxer.vocabulary.ebnf.informally.CommentOrSpaceDelimitor
BEGIN   : position:(c:0 m:0) targetchar='e'  	| parser://org.unlaxer.parser.elementary.SpaceDelimitor
COMMIT  : position:(c:0 m:0) targetchar='e'  	| parser://org.unlaxer.parser.elementary.SpaceDelimitor | committed: 
COMMIT  : position:(c:0 m:0) targetchar='e'  	| parser://org.unlaxer.vocabulary.ebnf.informally.CommentOrSpaceDelimitor | committed: 
COMMIT  : position:(c:0 m:0) targetchar='e'  	| parser://org.unlaxer.vocabulary.ebnf.informally.Comments | committed: 
BEGIN   : position:(c:0 m:0) targetchar='e'  	| parser://org.unlaxer.vocabulary.ebnf.informally.MetaIdentifier
BEGIN   : position:(c:1 m:1) targetchar='m'  	| parser://org.unlaxer.parser.combinator.ZeroOrMore
BEGIN   : position:(c:1 m:1) targetchar='m'  	| parser:/ZeroOrMore/org.unlaxer.parser.combinator.Choice
BEGIN   : position:(c:1 m:1) targetchar='m'  	| parser:/ZeroOrMore/Choice/org.unlaxer.parser.combinator.Chain
ROLLBACK: position:(c:1 m:1) targetchar='m'  	| parser:/ZeroOrMore/Choice/org.unlaxer.parser.combinator.Chain | rollbacked: 
ROLLBACK: position:(c:1 m:1) targetchar='m'  	| parser:/ZeroOrMore/org.unlaxer.parser.combinator.Choice | rollbacked: 
BEGIN   : position:(c:1 m:1) targetchar='m'  	| parser:/ZeroOrMore/org.unlaxer.parser.combinator.Choice
COMMIT  : position:(c:2 m:2) targetchar='p'  	| parser:/ZeroOrMore/org.unlaxer.parser.combinator.Choice | committed:m 
BEGIN   : position:(c:2 m:2) targetchar='p'  	| parser:/ZeroOrMore/org.unlaxer.parser.combinator.Choice
BEGIN   : position:(c:2 m:2) targetchar='p'  	| parser:/ZeroOrMore/Choice/org.unlaxer.parser.combinator.Chain
ROLLBACK: position:(c:2 m:2) targetchar='p'  	| parser:/ZeroOrMore/Choice/org.unlaxer.parser.combinator.Chain | rollbacked: 
ROLLBACK: position:(c:2 m:2) targetchar='p'  	| parser:/ZeroOrMore/org.unlaxer.parser.combinator.Choice | rollbacked: 
BEGIN   : position:(c:2 m:2) targetchar='p'  	| parser:/ZeroOrMore/org.unlaxer.parser.combinator.Choice
COMMIT  : position:(c:3 m:3) targetchar='t'  	| parser:/ZeroOrMore/org.unlaxer.parser.combinator.Choice | committed:p 
BEGIN   : position:(c:3 m:3) targetchar='t'  	| parser:/ZeroOrMore/org.unlaxer.parser.combinator.Choice
BEGIN   : position:(c:3 m:3) targetchar='t'  	| parser:/ZeroOrMore/Choice/org.unlaxer.parser.combinator.Chain
ROLLBACK: position:(c:3 m:3) targetchar='t'  	| parser:/ZeroOrMore/Choice/org.unlaxer.parser.combinator.Chain | rollbacked: 
ROLLBACK: position:(c:3 m:3) targetchar='t'  	| parser:/ZeroOrMore/org.unlaxer.parser.combinator.Choice | rollbacked: 
BEGIN   : position:(c:3 m:3) targetchar='t'  	| parser:/ZeroOrMore/org.unlaxer.parser.combinator.Choice
COMMIT  : position:(c:4 m:4) targetchar='y'  	| parser:/ZeroOrMore/org.unlaxer.parser.combinator.Choice | committed:t 
BEGIN   : position:(c:4 m:4) targetchar='y'  	| parser:/ZeroOrMore/org.unlaxer.parser.combinator.Choice
BEGIN   : position:(c:4 m:4) targetchar='y'  	| parser:/ZeroOrMore/Choice/org.unlaxer.parser.combinator.Chain
ROLLBACK: position:(c:4 m:4) targetchar='y'  	| parser:/ZeroOrMore/Choice/org.unlaxer.parser.combinator.Chain | rollbacked: 
ROLLBACK: position:(c:4 m:4) targetchar='y'  	| parser:/ZeroOrMore/org.unlaxer.parser.combinator.Choice | rollbacked: 
BEGIN   : position:(c:4 m:4) targetchar='y'  	| parser:/ZeroOrMore/org.unlaxer.parser.combinator.Choice
COMMIT  : position:(c:5 m:5) targetchar='='  	| parser:/ZeroOrMore/org.unlaxer.parser.combinator.Choice | committed:y 
BEGIN   : position:(c:5 m:5) targetchar='='  	| parser:/ZeroOrMore/org.unlaxer.parser.combinator.Choice
BEGIN   : position:(c:5 m:5) targetchar='='  	| parser:/ZeroOrMore/Choice/org.unlaxer.parser.combinator.Chain
ROLLBACK: position:(c:5 m:5) targetchar='='  	| parser:/ZeroOrMore/Choice/org.unlaxer.parser.combinator.Chain | rollbacked: 
ROLLBACK: position:(c:5 m:5) targetchar='='  	| parser:/ZeroOrMore/org.unlaxer.parser.combinator.Choice | rollbacked: 
BEGIN   : position:(c:5 m:5) targetchar='='  	| parser:/ZeroOrMore/org.unlaxer.parser.combinator.Choice
ROLLBACK: position:(c:5 m:5) targetchar='='  	| parser:/ZeroOrMore/org.unlaxer.parser.combinator.Choice | rollbacked: 
BEGIN   : position:(c:5 m:5) targetchar='='  	| parser:/ZeroOrMore/org.unlaxer.parser.combinator.Choice
ROLLBACK: position:(c:5 m:5) targetchar='='  	| parser:/ZeroOrMore/org.unlaxer.parser.combinator.Choice | rollbacked: 
COMMIT  : position:(c:5 m:5) targetchar='='  	| parser://org.unlaxer.parser.combinator.ZeroOrMore | committed:mpty 
COMMIT  : position:(c:5 m:5) targetchar='='  	| parser://org.unlaxer.vocabulary.ebnf.informally.MetaIdentifier | committed:empty 
BEGIN   : position:(c:5 m:5) targetchar='='  	| parser://org.unlaxer.vocabulary.ebnf.informally.Comments
BEGIN   : position:(c:5 m:5) targetchar='='  	| parser://org.unlaxer.vocabulary.ebnf.informally.CommentOrSpaceDelimitor
BEGIN   : position:(c:5 m:5) targetchar='='  	| parser://org.unlaxer.vocabulary.ebnf.informally.Comment
ROLLBACK: position:(c:5 m:5) targetchar='='  	| parser://org.unlaxer.vocabulary.ebnf.informally.Comment | rollbacked: 
ROLLBACK: position:(c:5 m:5) targetchar='='  	| parser://org.unlaxer.vocabulary.ebnf.informally.CommentOrSpaceDelimitor | rollbacked: 
BEGIN   : position:(c:5 m:5) targetchar='='  	| parser://org.unlaxer.vocabulary.ebnf.informally.CommentOrSpaceDelimitor
BEGIN   : position:(c:5 m:5) targetchar='='  	| parser://org.unlaxer.parser.elementary.SpaceDelimitor
COMMIT  : position:(c:5 m:5) targetchar='='  	| parser://org.unlaxer.parser.elementary.SpaceDelimitor | committed: 
COMMIT  : position:(c:5 m:5) targetchar='='  	| parser://org.unlaxer.vocabulary.ebnf.informally.CommentOrSpaceDelimitor | committed: 
COMMIT  : position:(c:5 m:5) targetchar='='  	| parser://org.unlaxer.vocabulary.ebnf.informally.Comments | committed: 
BEGIN   : position:(c:6 m:6) targetchar='''  	| parser://org.unlaxer.vocabulary.ebnf.informally.Comments
BEGIN   : position:(c:6 m:6) targetchar='''  	| parser://org.unlaxer.vocabulary.ebnf.informally.CommentOrSpaceDelimitor
BEGIN   : position:(c:6 m:6) targetchar='''  	| parser://org.unlaxer.vocabulary.ebnf.informally.Comment
ROLLBACK: position:(c:6 m:6) targetchar='''  	| parser://org.unlaxer.vocabulary.ebnf.informally.Comment | rollbacked: 
ROLLBACK: position:(c:6 m:6) targetchar='''  	| parser://org.unlaxer.vocabulary.ebnf.informally.CommentOrSpaceDelimitor | rollbacked: 
BEGIN   : position:(c:6 m:6) targetchar='''  	| parser://org.unlaxer.vocabulary.ebnf.informally.CommentOrSpaceDelimitor
BEGIN   : position:(c:6 m:6) targetchar='''  	| parser://org.unlaxer.parser.elementary.SpaceDelimitor
COMMIT  : position:(c:6 m:6) targetchar='''  	| parser://org.unlaxer.parser.elementary.SpaceDelimitor | committed: 
COMMIT  : position:(c:6 m:6) targetchar='''  	| parser://org.unlaxer.vocabulary.ebnf.informally.CommentOrSpaceDelimitor | committed: 
COMMIT  : position:(c:6 m:6) targetchar='''  	| parser://org.unlaxer.vocabulary.ebnf.informally.Comments | committed: 
BEGIN   : position:(c:6 m:6) targetchar='''  	| parser://org.unlaxer.vocabulary.ebnf.informally.DefinitionsList
BEGIN   : position:(c:6 m:6) targetchar='''  	| parser://org.unlaxer.vocabulary.ebnf.informally.Comments
BEGIN   : position:(c:6 m:6) targetchar='''  	| parser://org.unlaxer.vocabulary.ebnf.informally.CommentOrSpaceDelimitor
BEGIN   : position:(c:6 m:6) targetchar='''  	| parser://org.unlaxer.vocabulary.ebnf.informally.Comment
ROLLBACK: position:(c:6 m:6) targetchar='''  	| parser://org.unlaxer.vocabulary.ebnf.informally.Comment | rollbacked: 
ROLLBACK: position:(c:6 m:6) targetchar='''  	| parser://org.unlaxer.vocabulary.ebnf.informally.CommentOrSpaceDelimitor | rollbacked: 
BEGIN   : position:(c:6 m:6) targetchar='''  	| parser://org.unlaxer.vocabulary.ebnf.informally.CommentOrSpaceDelimitor
BEGIN   : position:(c:6 m:6) targetchar='''  	| parser://org.unlaxer.parser.elementary.SpaceDelimitor
COMMIT  : position:(c:6 m:6) targetchar='''  	| parser://org.unlaxer.parser.elementary.SpaceDelimitor | committed: 
COMMIT  : position:(c:6 m:6) targetchar='''  	| parser://org.unlaxer.vocabulary.ebnf.informally.CommentOrSpaceDelimitor | committed: 
COMMIT  : position:(c:6 m:6) targetchar='''  	| parser://org.unlaxer.vocabulary.ebnf.informally.Comments | committed: 
BEGIN   : position:(c:6 m:6) targetchar='''  	| parser://org.unlaxer.vocabulary.ebnf.informally.SingleDefinition
BEGIN   : position:(c:6 m:6) targetchar='''  	| parser://org.unlaxer.vocabulary.ebnf.informally.Comments
BEGIN   : position:(c:6 m:6) targetchar='''  	| parser://org.unlaxer.vocabulary.ebnf.informally.CommentOrSpaceDelimitor
BEGIN   : position:(c:6 m:6) targetchar='''  	| parser://org.unlaxer.vocabulary.ebnf.informally.Comment
ROLLBACK: position:(c:6 m:6) targetchar='''  	| parser://org.unlaxer.vocabulary.ebnf.informally.Comment | rollbacked: 
ROLLBACK: position:(c:6 m:6) targetchar='''  	| parser://org.unlaxer.vocabulary.ebnf.informally.CommentOrSpaceDelimitor | rollbacked: 
BEGIN   : position:(c:6 m:6) targetchar='''  	| parser://org.unlaxer.vocabulary.ebnf.informally.CommentOrSpaceDelimitor
BEGIN   : position:(c:6 m:6) targetchar='''  	| parser://org.unlaxer.parser.elementary.SpaceDelimitor
COMMIT  : position:(c:6 m:6) targetchar='''  	| parser://org.unlaxer.parser.elementary.SpaceDelimitor | committed: 
COMMIT  : position:(c:6 m:6) targetchar='''  	| parser://org.unlaxer.vocabulary.ebnf.informally.CommentOrSpaceDelimitor | committed: 
COMMIT  : position:(c:6 m:6) targetchar='''  	| parser://org.unlaxer.vocabulary.ebnf.informally.Comments | committed: 
BEGIN   : position:(c:6 m:6) targetchar='''  	| parser://org.unlaxer.vocabulary.ebnf.informally.Term
BEGIN   : position:(c:6 m:6) targetchar='''  	| parser://org.unlaxer.vocabulary.ebnf.informally.Comments
BEGIN   : position:(c:6 m:6) targetchar='''  	| parser://org.unlaxer.vocabulary.ebnf.informally.CommentOrSpaceDelimitor
BEGIN   : position:(c:6 m:6) targetchar='''  	| parser://org.unlaxer.vocabulary.ebnf.informally.Comment
ROLLBACK: position:(c:6 m:6) targetchar='''  	| parser://org.unlaxer.vocabulary.ebnf.informally.Comment | rollbacked: 
ROLLBACK: position:(c:6 m:6) targetchar='''  	| parser://org.unlaxer.vocabulary.ebnf.informally.CommentOrSpaceDelimitor | rollbacked: 
BEGIN   : position:(c:6 m:6) targetchar='''  	| parser://org.unlaxer.vocabulary.ebnf.informally.CommentOrSpaceDelimitor
BEGIN   : position:(c:6 m:6) targetchar='''  	| parser://org.unlaxer.parser.elementary.SpaceDelimitor
COMMIT  : position:(c:6 m:6) targetchar='''  	| parser://org.unlaxer.parser.elementary.SpaceDelimitor | committed: 
COMMIT  : position:(c:6 m:6) targetchar='''  	| parser://org.unlaxer.vocabulary.ebnf.informally.CommentOrSpaceDelimitor | committed: 
COMMIT  : position:(c:6 m:6) targetchar='''  	| parser://org.unlaxer.vocabulary.ebnf.informally.Comments | committed: 
BEGIN   : position:(c:6 m:6) targetchar='''  	| parser://org.unlaxer.vocabulary.ebnf.informally.Factor
BEGIN   : position:(c:6 m:6) targetchar='''  	| parser://org.unlaxer.parser.combinator.ZeroOrOne
BEGIN   : position:(c:6 m:6) targetchar='''  	| parser:/ZeroOrOne/org.unlaxer.parser.combinator.Chain
BEGIN   : position:(c:6 m:6) targetchar='''  	| parser:/ZeroOrOne/Chain/org.unlaxer.vocabulary.ebnf.informally.Comments
BEGIN   : position:(c:6 m:6) targetchar='''  	| parser://org.unlaxer.vocabulary.ebnf.informally.CommentOrSpaceDelimitor
BEGIN   : position:(c:6 m:6) targetchar='''  	| parser://org.unlaxer.vocabulary.ebnf.informally.Comment
ROLLBACK: position:(c:6 m:6) targetchar='''  	| parser://org.unlaxer.vocabulary.ebnf.informally.Comment | rollbacked: 
ROLLBACK: position:(c:6 m:6) targetchar='''  	| parser://org.unlaxer.vocabulary.ebnf.informally.CommentOrSpaceDelimitor | rollbacked: 
BEGIN   : position:(c:6 m:6) targetchar='''  	| parser://org.unlaxer.vocabulary.ebnf.informally.CommentOrSpaceDelimitor
BEGIN   : position:(c:6 m:6) targetchar='''  	| parser://org.unlaxer.parser.elementary.SpaceDelimitor
COMMIT  : position:(c:6 m:6) targetchar='''  	| parser://org.unlaxer.parser.elementary.SpaceDelimitor | committed: 
COMMIT  : position:(c:6 m:6) targetchar='''  	| parser://org.unlaxer.vocabulary.ebnf.informally.CommentOrSpaceDelimitor | committed: 
COMMIT  : position:(c:6 m:6) targetchar='''  	| parser:/ZeroOrOne/Chain/org.unlaxer.vocabulary.ebnf.informally.Comments | committed: 
BEGIN   : position:(c:6 m:6) targetchar='''  	| parser:/ZeroOrOne/Chain/org.unlaxer.vocabulary.ebnf.informally.Integer
ROLLBACK: position:(c:6 m:6) targetchar='''  	| parser:/ZeroOrOne/Chain/org.unlaxer.vocabulary.ebnf.informally.Integer | rollbacked: 
ROLLBACK: position:(c:6 m:6) targetchar='''  	| parser:/ZeroOrOne/org.unlaxer.parser.combinator.Chain | rollbacked: 
COMMIT  : position:(c:6 m:6) targetchar='''  	| parser://org.unlaxer.parser.combinator.ZeroOrOne | committed: 
BEGIN   : position:(c:6 m:6) targetchar='''  	| parser://org.unlaxer.vocabulary.ebnf.informally.Comments
BEGIN   : position:(c:6 m:6) targetchar='''  	| parser://org.unlaxer.vocabulary.ebnf.informally.CommentOrSpaceDelimitor
BEGIN   : position:(c:6 m:6) targetchar='''  	| parser://org.unlaxer.vocabulary.ebnf.informally.Comment
ROLLBACK: position:(c:6 m:6) targetchar='''  	| parser://org.unlaxer.vocabulary.ebnf.informally.Comment | rollbacked: 
ROLLBACK: position:(c:6 m:6) targetchar='''  	| parser://org.unlaxer.vocabulary.ebnf.informally.CommentOrSpaceDelimitor | rollbacked: 
BEGIN   : position:(c:6 m:6) targetchar='''  	| parser://org.unlaxer.vocabulary.ebnf.informally.CommentOrSpaceDelimitor
BEGIN   : position:(c:6 m:6) targetchar='''  	| parser://org.unlaxer.parser.elementary.SpaceDelimitor
COMMIT  : position:(c:6 m:6) targetchar='''  	| parser://org.unlaxer.parser.elementary.SpaceDelimitor | committed: 
COMMIT  : position:(c:6 m:6) targetchar='''  	| parser://org.unlaxer.vocabulary.ebnf.informally.CommentOrSpaceDelimitor | committed: 
COMMIT  : position:(c:6 m:6) targetchar='''  	| parser://org.unlaxer.vocabulary.ebnf.informally.Comments | committed: 
BEGIN   : position:(c:6 m:6) targetchar='''  	| parser://org.unlaxer.vocabulary.ebnf.informally.Primary
BEGIN   : position:(c:6 m:6) targetchar='''  	| parser://org.unlaxer.vocabulary.ebnf.informally.OptionalSequence
ROLLBACK: position:(c:6 m:6) targetchar='''  	| parser://org.unlaxer.vocabulary.ebnf.informally.OptionalSequence | rollbacked: 
ROLLBACK: position:(c:6 m:6) targetchar='''  	| parser://org.unlaxer.vocabulary.ebnf.informally.Primary | rollbacked: 
BEGIN   : position:(c:6 m:6) targetchar='''  	| parser://org.unlaxer.vocabulary.ebnf.informally.Primary
BEGIN   : position:(c:6 m:6) targetchar='''  	| parser://org.unlaxer.vocabulary.ebnf.informally.RepeatedSequence
ROLLBACK: position:(c:6 m:6) targetchar='''  	| parser://org.unlaxer.vocabulary.ebnf.informally.RepeatedSequence | rollbacked: 
ROLLBACK: position:(c:6 m:6) targetchar='''  	| parser://org.unlaxer.vocabulary.ebnf.informally.Primary | rollbacked: 
BEGIN   : position:(c:6 m:6) targetchar='''  	| parser://org.unlaxer.vocabulary.ebnf.informally.Primary
BEGIN   : position:(c:6 m:6) targetchar='''  	| parser://org.unlaxer.vocabulary.ebnf.informally.SpecialSequence
ROLLBACK: position:(c:6 m:6) targetchar='''  	| parser://org.unlaxer.vocabulary.ebnf.informally.SpecialSequence | rollbacked: 
ROLLBACK: position:(c:6 m:6) targetchar='''  	| parser://org.unlaxer.vocabulary.ebnf.informally.Primary | rollbacked: 
BEGIN   : position:(c:6 m:6) targetchar='''  	| parser://org.unlaxer.vocabulary.ebnf.informally.Primary
BEGIN   : position:(c:6 m:6) targetchar='''  	| parser://org.unlaxer.vocabulary.ebnf.informally.GroupedSequence
ROLLBACK: position:(c:6 m:6) targetchar='''  	| parser://org.unlaxer.vocabulary.ebnf.informally.GroupedSequence | rollbacked: 
ROLLBACK: position:(c:6 m:6) targetchar='''  	| parser://org.unlaxer.vocabulary.ebnf.informally.Primary | rollbacked: 
BEGIN   : position:(c:6 m:6) targetchar='''  	| parser://org.unlaxer.vocabulary.ebnf.informally.Primary
BEGIN   : position:(c:6 m:6) targetchar='''  	| parser://org.unlaxer.vocabulary.ebnf.informally.MetaIdentifier
ROLLBACK: position:(c:6 m:6) targetchar='''  	| parser://org.unlaxer.vocabulary.ebnf.informally.MetaIdentifier | rollbacked: 
ROLLBACK: position:(c:6 m:6) targetchar='''  	| parser://org.unlaxer.vocabulary.ebnf.informally.Primary | rollbacked: 
BEGIN   : position:(c:6 m:6) targetchar='''  	| parser://org.unlaxer.vocabulary.ebnf.informally.Primary
BEGIN   : position:(c:6 m:6) targetchar='''  	| parser://org.unlaxer.vocabulary.ebnf.informally.TerminalString
BEGIN   : position:(c:6 m:6) targetchar='''  	| parser://org.unlaxer.parser.combinator.Chain
BEGIN   : position:(c:7 m:7) targetchar='a'  	| parser:/Chain/org.unlaxer.parser.combinator.OneOrMore
COMMIT  : position:(c:8 m:8) targetchar='''  	| parser:/Chain/org.unlaxer.parser.combinator.OneOrMore | committed:a 
COMMIT  : position:(c:9 m:9) targetchar=';'  	| parser://org.unlaxer.parser.combinator.Chain | committed:'a' 
COMMIT  : position:(c:9 m:9) targetchar=';'  	| parser://org.unlaxer.vocabulary.ebnf.informally.TerminalString | committed:'a' 
COMMIT  : position:(c:9 m:9) targetchar=';'  	| parser://org.unlaxer.vocabulary.ebnf.informally.Primary | committed:'a' 
COMMIT  : position:(c:9 m:9) targetchar=';'  	| parser://org.unlaxer.vocabulary.ebnf.informally.Factor | committed:'a' 
BEGIN   : position:(c:9 m:9) targetchar=';'  	| parser://org.unlaxer.parser.combinator.ZeroOrOne
BEGIN   : position:(c:9 m:9) targetchar=';'  	| parser:/ZeroOrOne/org.unlaxer.parser.combinator.Chain
BEGIN   : position:(c:9 m:9) targetchar=';'  	| parser:/ZeroOrOne/Chain/org.unlaxer.vocabulary.ebnf.informally.Comments
BEGIN   : position:(c:9 m:9) targetchar=';'  	| parser://org.unlaxer.vocabulary.ebnf.informally.CommentOrSpaceDelimitor
BEGIN   : position:(c:9 m:9) targetchar=';'  	| parser://org.unlaxer.vocabulary.ebnf.informally.Comment
ROLLBACK: position:(c:9 m:9) targetchar=';'  	| parser://org.unlaxer.vocabulary.ebnf.informally.Comment | rollbacked: 
ROLLBACK: position:(c:9 m:9) targetchar=';'  	| parser://org.unlaxer.vocabulary.ebnf.informally.CommentOrSpaceDelimitor | rollbacked: 
BEGIN   : position:(c:9 m:9) targetchar=';'  	| parser://org.unlaxer.vocabulary.ebnf.informally.CommentOrSpaceDelimitor
BEGIN   : position:(c:9 m:9) targetchar=';'  	| parser://org.unlaxer.parser.elementary.SpaceDelimitor
COMMIT  : position:(c:9 m:9) targetchar=';'  	| parser://org.unlaxer.parser.elementary.SpaceDelimitor | committed: 
COMMIT  : position:(c:9 m:9) targetchar=';'  	| parser://org.unlaxer.vocabulary.ebnf.informally.CommentOrSpaceDelimitor | committed: 
COMMIT  : position:(c:9 m:9) targetchar=';'  	| parser:/ZeroOrOne/Chain/org.unlaxer.vocabulary.ebnf.informally.Comments | committed: 
ROLLBACK: position:(c:9 m:9) targetchar=';'  	| parser:/ZeroOrOne/org.unlaxer.parser.combinator.Chain | rollbacked: 
COMMIT  : position:(c:9 m:9) targetchar=';'  	| parser://org.unlaxer.parser.combinator.ZeroOrOne | committed: 
COMMIT  : position:(c:9 m:9) targetchar=';'  	| parser://org.unlaxer.vocabulary.ebnf.informally.Term | committed:'a' 
BEGIN   : position:(c:9 m:9) targetchar=';'  	| parser://org.unlaxer.parser.combinator.ZeroOrMore
BEGIN   : position:(c:9 m:9) targetchar=';'  	| parser:/ZeroOrMore/org.unlaxer.parser.combinator.Chain
BEGIN   : position:(c:9 m:9) targetchar=';'  	| parser:/ZeroOrMore/Chain/org.unlaxer.vocabulary.ebnf.informally.Comments
BEGIN   : position:(c:9 m:9) targetchar=';'  	| parser://org.unlaxer.vocabulary.ebnf.informally.CommentOrSpaceDelimitor
BEGIN   : position:(c:9 m:9) targetchar=';'  	| parser://org.unlaxer.vocabulary.ebnf.informally.Comment
ROLLBACK: position:(c:9 m:9) targetchar=';'  	| parser://org.unlaxer.vocabulary.ebnf.informally.Comment | rollbacked: 
ROLLBACK: position:(c:9 m:9) targetchar=';'  	| parser://org.unlaxer.vocabulary.ebnf.informally.CommentOrSpaceDelimitor | rollbacked: 
BEGIN   : position:(c:9 m:9) targetchar=';'  	| parser://org.unlaxer.vocabulary.ebnf.informally.CommentOrSpaceDelimitor
BEGIN   : position:(c:9 m:9) targetchar=';'  	| parser://org.unlaxer.parser.elementary.SpaceDelimitor
COMMIT  : position:(c:9 m:9) targetchar=';'  	| parser://org.unlaxer.parser.elementary.SpaceDelimitor | committed: 
COMMIT  : position:(c:9 m:9) targetchar=';'  	| parser://org.unlaxer.vocabulary.ebnf.informally.CommentOrSpaceDelimitor | committed: 
COMMIT  : position:(c:9 m:9) targetchar=';'  	| parser:/ZeroOrMore/Chain/org.unlaxer.vocabulary.ebnf.informally.Comments | committed: 
ROLLBACK: position:(c:9 m:9) targetchar=';'  	| parser:/ZeroOrMore/org.unlaxer.parser.combinator.Chain | rollbacked: 
COMMIT  : position:(c:9 m:9) targetchar=';'  	| parser://org.unlaxer.parser.combinator.ZeroOrMore | committed: 
COMMIT  : position:(c:9 m:9) targetchar=';'  	| parser://org.unlaxer.vocabulary.ebnf.informally.SingleDefinition | committed:'a' 
BEGIN   : position:(c:9 m:9) targetchar=';'  	| parser://org.unlaxer.parser.combinator.ZeroOrMore
BEGIN   : position:(c:9 m:9) targetchar=';'  	| parser:/ZeroOrMore/org.unlaxer.parser.combinator.Chain
BEGIN   : position:(c:9 m:9) targetchar=';'  	| parser:/ZeroOrMore/Chain/org.unlaxer.vocabulary.ebnf.informally.Comments
BEGIN   : position:(c:9 m:9) targetchar=';'  	| parser://org.unlaxer.vocabulary.ebnf.informally.CommentOrSpaceDelimitor
BEGIN   : position:(c:9 m:9) targetchar=';'  	| parser://org.unlaxer.vocabulary.ebnf.informally.Comment
ROLLBACK: position:(c:9 m:9) targetchar=';'  	| parser://org.unlaxer.vocabulary.ebnf.informally.Comment | rollbacked: 
ROLLBACK: position:(c:9 m:9) targetchar=';'  	| parser://org.unlaxer.vocabulary.ebnf.informally.CommentOrSpaceDelimitor | rollbacked: 
BEGIN   : position:(c:9 m:9) targetchar=';'  	| parser://org.unlaxer.vocabulary.ebnf.informally.CommentOrSpaceDelimitor
BEGIN   : position:(c:9 m:9) targetchar=';'  	| parser://org.unlaxer.parser.elementary.SpaceDelimitor
COMMIT  : position:(c:9 m:9) targetchar=';'  	| parser://org.unlaxer.parser.elementary.SpaceDelimitor | committed: 
COMMIT  : position:(c:9 m:9) targetchar=';'  	| parser://org.unlaxer.vocabulary.ebnf.informally.CommentOrSpaceDelimitor | committed: 
COMMIT  : position:(c:9 m:9) targetchar=';'  	| parser:/ZeroOrMore/Chain/org.unlaxer.vocabulary.ebnf.informally.Comments | committed: 
ROLLBACK: position:(c:9 m:9) targetchar=';'  	| parser:/ZeroOrMore/org.unlaxer.parser.combinator.Chain | rollbacked: 
COMMIT  : position:(c:9 m:9) targetchar=';'  	| parser://org.unlaxer.parser.combinator.ZeroOrMore | committed: 
COMMIT  : position:(c:9 m:9) targetchar=';'  	| parser://org.unlaxer.vocabulary.ebnf.informally.DefinitionsList | committed:'a' 
BEGIN   : position:(c:9 m:9) targetchar=';'  	| parser://org.unlaxer.vocabulary.ebnf.informally.Comments
BEGIN   : position:(c:9 m:9) targetchar=';'  	| parser://org.unlaxer.vocabulary.ebnf.informally.CommentOrSpaceDelimitor
BEGIN   : position:(c:9 m:9) targetchar=';'  	| parser://org.unlaxer.vocabulary.ebnf.informally.Comment
ROLLBACK: position:(c:9 m:9) targetchar=';'  	| parser://org.unlaxer.vocabulary.ebnf.informally.Comment | rollbacked: 
ROLLBACK: position:(c:9 m:9) targetchar=';'  	| parser://org.unlaxer.vocabulary.ebnf.informally.CommentOrSpaceDelimitor | rollbacked: 
BEGIN   : position:(c:9 m:9) targetchar=';'  	| parser://org.unlaxer.vocabulary.ebnf.informally.CommentOrSpaceDelimitor
BEGIN   : position:(c:9 m:9) targetchar=';'  	| parser://org.unlaxer.parser.elementary.SpaceDelimitor
COMMIT  : position:(c:9 m:9) targetchar=';'  	| parser://org.unlaxer.parser.elementary.SpaceDelimitor | committed: 
COMMIT  : position:(c:9 m:9) targetchar=';'  	| parser://org.unlaxer.vocabulary.ebnf.informally.CommentOrSpaceDelimitor | committed: 
COMMIT  : position:(c:9 m:9) targetchar=';'  	| parser://org.unlaxer.vocabulary.ebnf.informally.Comments | committed: 
BEGIN   : position:(c:10 m:10) targetchar=''  	| parser://org.unlaxer.vocabulary.ebnf.informally.Comments
BEGIN   : position:(c:10 m:10) targetchar=''  	| parser://org.unlaxer.vocabulary.ebnf.informally.CommentOrSpaceDelimitor
BEGIN   : position:(c:10 m:10) targetchar=''  	| parser://org.unlaxer.vocabulary.ebnf.informally.Comment
ROLLBACK: position:(c:10 m:10) targetchar=''  	| parser://org.unlaxer.vocabulary.ebnf.informally.Comment | rollbacked: 
ROLLBACK: position:(c:10 m:10) targetchar=''  	| parser://org.unlaxer.vocabulary.ebnf.informally.CommentOrSpaceDelimitor | rollbacked: 
BEGIN   : position:(c:10 m:10) targetchar=''  	| parser://org.unlaxer.vocabulary.ebnf.informally.CommentOrSpaceDelimitor
BEGIN   : position:(c:10 m:10) targetchar=''  	| parser://org.unlaxer.parser.elementary.SpaceDelimitor
COMMIT  : position:(c:10 m:10) targetchar=''  	| parser://org.unlaxer.parser.elementary.SpaceDelimitor | committed: 
COMMIT  : position:(c:10 m:10) targetchar=''  	| parser://org.unlaxer.vocabulary.ebnf.informally.CommentOrSpaceDelimitor | committed: 
COMMIT  : position:(c:10 m:10) targetchar=''  	| parser://org.unlaxer.vocabulary.ebnf.informally.Comments | committed: 
COMMIT  : position:(c:10 m:10) targetchar=''  	| parser://org.unlaxer.vocabulary.ebnf.informally.SyntaxRule | committed:empty='a'; 
BEGIN   : position:(c:10 m:10) targetchar=''  	| parser://org.unlaxer.vocabulary.ebnf.informally.SyntaxRule
BEGIN   : position:(c:10 m:10) targetchar=''  	| parser://org.unlaxer.vocabulary.ebnf.informally.Comments
BEGIN   : position:(c:10 m:10) targetchar=''  	| parser://org.unlaxer.vocabulary.ebnf.informally.CommentOrSpaceDelimitor
BEGIN   : position:(c:10 m:10) targetchar=''  	| parser://org.unlaxer.vocabulary.ebnf.informally.Comment
ROLLBACK: position:(c:10 m:10) targetchar=''  	| parser://org.unlaxer.vocabulary.ebnf.informally.Comment | rollbacked: 
ROLLBACK: position:(c:10 m:10) targetchar=''  	| parser://org.unlaxer.vocabulary.ebnf.informally.CommentOrSpaceDelimitor | rollbacked: 
BEGIN   : position:(c:10 m:10) targetchar=''  	| parser://org.unlaxer.vocabulary.ebnf.informally.CommentOrSpaceDelimitor
BEGIN   : position:(c:10 m:10) targetchar=''  	| parser://org.unlaxer.parser.elementary.SpaceDelimitor
COMMIT  : position:(c:10 m:10) targetchar=''  	| parser://org.unlaxer.parser.elementary.SpaceDelimitor | committed: 
COMMIT  : position:(c:10 m:10) targetchar=''  	| parser://org.unlaxer.vocabulary.ebnf.informally.CommentOrSpaceDelimitor | committed: 
COMMIT  : position:(c:10 m:10) targetchar=''  	| parser://org.unlaxer.vocabulary.ebnf.informally.Comments | committed: 
BEGIN   : position:(c:10 m:10) targetchar=''  	| parser://org.unlaxer.vocabulary.ebnf.informally.MetaIdentifier
ROLLBACK: position:(c:10 m:10) targetchar=''  	| parser://org.unlaxer.vocabulary.ebnf.informally.MetaIdentifier | rollbacked: 
ROLLBACK: position:(c:10 m:10) targetchar=''  	| parser://org.unlaxer.vocabulary.ebnf.informally.SyntaxRule | rollbacked: 
COMMIT  : position:(c:10 m:10) targetchar=''  	| parser://org.unlaxer.vocabulary.ebnf.informally.Syntax | committed:empty='a'; 
CLOSE   : 'empty='a';' consumed:allConsumed 

