'1+' (0 - 2): org.unlaxer.parser.combinator.Chain
 '1' (0 - 1): org.unlaxer.parser.posix.DigitParser
 '+' (1 - 2): org.unlaxer.parser.ascii.PlusParser
 '' (2 - 2): org.unlaxer.parser.combinator.Choice
  <EMPTY> (2 - 2): org.unlaxer.parser.SuggestsCollectorParser

