'-.0' (0 - 3): org.unlaxer.parser.elementary.NumberParser
 '-' (0 - 1): optional-signParser
  '-' (0 - 1): org.unlaxer.parser.elementary.SignParser
 '.0' (1 - 3): org.unlaxer.parser.combinator.Choice
  '.0' (1 - 3): point-digits
   '.' (1 - 2): org.unlaxer.parser.ascii.PointParser
   '0' (2 - 3): any-digit
    '0' (2 - 3): org.unlaxer.parser.posix.DigitParser
 <EMPTY> (3 - 3): org.unlaxer.parser.combinator.Optional

