OPEN    : '12'
BEGIN   : position:(c:0 m:0) targetchar='1'  	| parser://org.unlaxer.parser.combinator.NotPropagatableSource
ROLLBACK: position:(c:0 m:0) targetchar='1'  	| parser://org.unlaxer.parser.combinator.NotPropagatableSource | rollbacked: 
CLOSE   : '12' consumed:0(2 remain) 

