OPEN    : '+-'
START   : position:(c:0 m:0) targetchar='+'  	| parser:org.unlaxer.parser.combinator.Choice
BEGIN   : position:(c:0 m:0) targetchar='+'  	| parser:org.unlaxer.parser.combinator.Choice
ROLLBACK: position:(c:0 m:0) targetchar='+'  	| parser:org.unlaxer.parser.combinator.Choice | rollbacked: 
BEGIN   : position:(c:0 m:0) targetchar='+'  	| parser:org.unlaxer.parser.combinator.Choice
COMMIT  : position:(c:1 m:1) targetchar='-'  	| parser:org.unlaxer.parser.combinator.Choice | committed:+ 
END     : position:(c:1 m:1) targetchar='-'  	| parser:org.unlaxer.parser.combinator.Choice| status:succeeded | parsed:+  
CLOSE   : '+-' consumed:1(1 remain) 

