START   : position:(c:0 m:0) targetchar='"'  	| parser:org.unlaxer.parser.elementary.DoubleQuotedParser
START   : position:(c:0 m:0) targetchar='"'  	| parser:org.unlaxer.parser.elementary.QuotedParser(org.unlaxer.parser.elementary.QuotedParser$Parts(leftQuote))
END     : position:(c:1 m:1) targetchar='a'  	| parser:org.unlaxer.parser.elementary.QuotedParser(org.unlaxer.parser.elementary.QuotedParser$Parts(leftQuote))| status:succeeded | parsed:"  
START   : position:(c:1 m:1) targetchar='a'  	| parser:org.unlaxer.parser.elementary.QuotedParser(org.unlaxer.parser.elementary.QuotedParser$Parts(contents))
START   : position:(c:1 m:1) targetchar='a'  	| parser:org.unlaxer.parser.combinator.Choice
START   : position:(c:1 m:1) targetchar='a'  	| parser:org.unlaxer.parser.elementary.EscapeInQuotedParser
END     : position:(c:1 m:1) targetchar='a'  	| parser:org.unlaxer.parser.elementary.EscapeInQuotedParser| status:failed | parsed:  
START   : position:(c:1 m:1) targetchar='a'  	| parser:org.unlaxer.parser.combinator.NotPropagatableSource
END     : position:(c:2 m:2) targetchar='b'  	| parser:org.unlaxer.parser.combinator.NotPropagatableSource| status:succeeded | parsed:a  
END     : position:(c:2 m:2) targetchar='b'  	| parser:org.unlaxer.parser.combinator.Choice| status:succeeded | parsed:a  
START   : position:(c:2 m:2) targetchar='b'  	| parser:org.unlaxer.parser.combinator.Choice
START   : position:(c:2 m:2) targetchar='b'  	| parser:org.unlaxer.parser.elementary.EscapeInQuotedParser
END     : position:(c:2 m:2) targetchar='b'  	| parser:org.unlaxer.parser.elementary.EscapeInQuotedParser| status:failed | parsed:  
START   : position:(c:2 m:2) targetchar='b'  	| parser:org.unlaxer.parser.combinator.NotPropagatableSource
END     : position:(c:3 m:3) targetchar='\'  	| parser:org.unlaxer.parser.combinator.NotPropagatableSource| status:succeeded | parsed:b  
END     : position:(c:3 m:3) targetchar='\'  	| parser:org.unlaxer.parser.combinator.Choice| status:succeeded | parsed:b  
START   : position:(c:3 m:3) targetchar='\'  	| parser:org.unlaxer.parser.combinator.Choice
START   : position:(c:3 m:3) targetchar='\'  	| parser:org.unlaxer.parser.elementary.EscapeInQuotedParser
END     : position:(c:5 m:5) targetchar='c'  	| parser:org.unlaxer.parser.elementary.EscapeInQuotedParser| status:succeeded | parsed:\"  
END     : position:(c:5 m:5) targetchar='c'  	| parser:org.unlaxer.parser.combinator.Choice| status:succeeded | parsed:\"  
START   : position:(c:5 m:5) targetchar='c'  	| parser:org.unlaxer.parser.combinator.Choice
START   : position:(c:5 m:5) targetchar='c'  	| parser:org.unlaxer.parser.elementary.EscapeInQuotedParser
END     : position:(c:5 m:5) targetchar='c'  	| parser:org.unlaxer.parser.elementary.EscapeInQuotedParser| status:failed | parsed:  
START   : position:(c:5 m:5) targetchar='c'  	| parser:org.unlaxer.parser.combinator.NotPropagatableSource
END     : position:(c:6 m:6) targetchar='"'  	| parser:org.unlaxer.parser.combinator.NotPropagatableSource| status:succeeded | parsed:c  
END     : position:(c:6 m:6) targetchar='"'  	| parser:org.unlaxer.parser.combinator.Choice| status:succeeded | parsed:c  
START   : position:(c:6 m:6) targetchar='"'  	| parser:org.unlaxer.parser.combinator.Choice
START   : position:(c:6 m:6) targetchar='"'  	| parser:org.unlaxer.parser.elementary.EscapeInQuotedParser
END     : position:(c:6 m:6) targetchar='"'  	| parser:org.unlaxer.parser.elementary.EscapeInQuotedParser| status:failed | parsed:  
START   : position:(c:6 m:6) targetchar='"'  	| parser:org.unlaxer.parser.combinator.NotPropagatableSource
END     : position:(c:6 m:6) targetchar='"'  	| parser:org.unlaxer.parser.combinator.NotPropagatableSource| status:failed | parsed:  
END     : position:(c:6 m:6) targetchar='"'  	| parser:org.unlaxer.parser.combinator.Choice| status:failed | parsed:  
END     : position:(c:6 m:6) targetchar='"'  	| parser:org.unlaxer.parser.elementary.QuotedParser(org.unlaxer.parser.elementary.QuotedParser$Parts(contents))| status:succeeded | parsed:ab\"c  
START   : position:(c:6 m:6) targetchar='"'  	| parser:org.unlaxer.parser.elementary.QuotedParser(org.unlaxer.parser.elementary.QuotedParser$Parts(rightQuote))
END     : position:(c:7 m:7) targetchar=''  	| parser:org.unlaxer.parser.elementary.QuotedParser(org.unlaxer.parser.elementary.QuotedParser$Parts(rightQuote))| status:succeeded | parsed:"  
END     : position:(c:7 m:7) targetchar=''  	| parser:org.unlaxer.parser.elementary.DoubleQuotedParser| status:succeeded | parsed:"ab\"c"  
