'((((((((((((((((((((((((((((1))))))))))))))))))))))))))))' (0 - 57): org.unlaxer.sample.calc.parser.ExpressionParser
 '((((((((((((((((((((((((((((1))))))))))))))))))))))))))))' (0 - 57): org.unlaxer.parser.combinator.Chain
  '((((((((((((((((((((((((((((1))))))))))))))))))))))))))))' (0 - 57): org.unlaxer.sample.calc.parser.TermParser
   '((((((((((((((((((((((((((((1))))))))))))))))))))))))))))' (0 - 57): org.unlaxer.parser.combinator.Chain
    '((((((((((((((((((((((((((((1))))))))))))))))))))))))))))' (0 - 57): org.unlaxer.sample.calc.parser.FactorParser
     '((((((((((((((((((((((((((((1))))))))))))))))))))))))))))' (0 - 57): org.unlaxer.parser.combinator.Choice
      '((((((((((((((((((((((((((((1))))))))))))))))))))))))))))' (0 - 57): org.unlaxer.parser.elementary.ParenthesesParser
       '(' (0 - 1): org.unlaxer.parser.ascii.LeftParenthesisParser
       '(((((((((((((((((((((((((((1)))))))))))))))))))))))))))' (1 - 56): org.unlaxer.sample.calc.parser.ExpressionParser
        '(((((((((((((((((((((((((((1)))))))))))))))))))))))))))' (1 - 56): org.unlaxer.parser.combinator.Chain
         '(((((((((((((((((((((((((((1)))))))))))))))))))))))))))' (1 - 56): org.unlaxer.sample.calc.parser.TermParser
          '(((((((((((((((((((((((((((1)))))))))))))))))))))))))))' (1 - 56): org.unlaxer.parser.combinator.Chain
           '(((((((((((((((((((((((((((1)))))))))))))))))))))))))))' (1 - 56): org.unlaxer.sample.calc.parser.FactorParser
            '(((((((((((((((((((((((((((1)))))))))))))))))))))))))))' (1 - 56): org.unlaxer.parser.combinator.Choice
             '(((((((((((((((((((((((((((1)))))))))))))))))))))))))))' (1 - 56): org.unlaxer.parser.elementary.ParenthesesParser
              '(' (1 - 2): org.unlaxer.parser.ascii.LeftParenthesisParser
              '((((((((((((((((((((((((((1))))))))))))))))))))))))))' (2 - 55): org.unlaxer.sample.calc.parser.ExpressionParser
               '((((((((((((((((((((((((((1))))))))))))))))))))))))))' (2 - 55): org.unlaxer.parser.combinator.Chain
                '((((((((((((((((((((((((((1))))))))))))))))))))))))))' (2 - 55): org.unlaxer.sample.calc.parser.TermParser
                 '((((((((((((((((((((((((((1))))))))))))))))))))))))))' (2 - 55): org.unlaxer.parser.combinator.Chain
                  '((((((((((((((((((((((((((1))))))))))))))))))))))))))' (2 - 55): org.unlaxer.sample.calc.parser.FactorParser
                   '((((((((((((((((((((((((((1))))))))))))))))))))))))))' (2 - 55): org.unlaxer.parser.combinator.Choice
                    '((((((((((((((((((((((((((1))))))))))))))))))))))))))' (2 - 55): org.unlaxer.parser.elementary.ParenthesesParser
                     '(' (2 - 3): org.unlaxer.parser.ascii.LeftParenthesisParser
                     '(((((((((((((((((((((((((1)))))))))))))))))))))))))' (3 - 54): org.unlaxer.sample.calc.parser.ExpressionParser
                      '(((((((((((((((((((((((((1)))))))))))))))))))))))))' (3 - 54): org.unlaxer.parser.combinator.Chain
                       '(((((((((((((((((((((((((1)))))))))))))))))))))))))' (3 - 54): org.unlaxer.sample.calc.parser.TermParser
                        '(((((((((((((((((((((((((1)))))))))))))))))))))))))' (3 - 54): org.unlaxer.parser.combinator.Chain
                         '(((((((((((((((((((((((((1)))))))))))))))))))))))))' (3 - 54): org.unlaxer.sample.calc.parser.FactorParser
                          '(((((((((((((((((((((((((1)))))))))))))))))))))))))' (3 - 54): org.unlaxer.parser.combinator.Choice
                           '(((((((((((((((((((((((((1)))))))))))))))))))))))))' (3 - 54): org.unlaxer.parser.elementary.ParenthesesParser
                            '(' (3 - 4): org.unlaxer.parser.ascii.LeftParenthesisParser
                            '((((((((((((((((((((((((1))))))))))))))))))))))))' (4 - 53): org.unlaxer.sample.calc.parser.ExpressionParser
                             '((((((((((((((((((((((((1))))))))))))))))))))))))' (4 - 53): org.unlaxer.parser.combinator.Chain
                              '((((((((((((((((((((((((1))))))))))))))))))))))))' (4 - 53): org.unlaxer.sample.calc.parser.TermParser
                               '((((((((((((((((((((((((1))))))))))))))))))))))))' (4 - 53): org.unlaxer.parser.combinator.Chain
                                '((((((((((((((((((((((((1))))))))))))))))))))))))' (4 - 53): org.unlaxer.sample.calc.parser.FactorParser
                                 '((((((((((((((((((((((((1))))))))))))))))))))))))' (4 - 53): org.unlaxer.parser.combinator.Choice
                                  '((((((((((((((((((((((((1))))))))))))))))))))))))' (4 - 53): org.unlaxer.parser.elementary.ParenthesesParser
                                   '(' (4 - 5): org.unlaxer.parser.ascii.LeftParenthesisParser
                                   '(((((((((((((((((((((((1)))))))))))))))))))))))' (5 - 52): org.unlaxer.sample.calc.parser.ExpressionParser
                                    '(((((((((((((((((((((((1)))))))))))))))))))))))' (5 - 52): org.unlaxer.parser.combinator.Chain
                                     '(((((((((((((((((((((((1)))))))))))))))))))))))' (5 - 52): org.unlaxer.sample.calc.parser.TermParser
                                      '(((((((((((((((((((((((1)))))))))))))))))))))))' (5 - 52): org.unlaxer.parser.combinator.Chain
                                       '(((((((((((((((((((((((1)))))))))))))))))))))))' (5 - 52): org.unlaxer.sample.calc.parser.FactorParser
                                        '(((((((((((((((((((((((1)))))))))))))))))))))))' (5 - 52): org.unlaxer.parser.combinator.Choice
                                         '(((((((((((((((((((((((1)))))))))))))))))))))))' (5 - 52): org.unlaxer.parser.elementary.ParenthesesParser
                                          '(' (5 - 6): org.unlaxer.parser.ascii.LeftParenthesisParser
                                          '((((((((((((((((((((((1))))))))))))))))))))))' (6 - 51): org.unlaxer.sample.calc.parser.ExpressionParser
                                           '((((((((((((((((((((((1))))))))))))))))))))))' (6 - 51): org.unlaxer.parser.combinator.Chain
                                            '((((((((((((((((((((((1))))))))))))))))))))))' (6 - 51): org.unlaxer.sample.calc.parser.TermParser
                                             '((((((((((((((((((((((1))))))))))))))))))))))' (6 - 51): org.unlaxer.parser.combinator.Chain
                                              '((((((((((((((((((((((1))))))))))))))))))))))' (6 - 51): org.unlaxer.sample.calc.parser.FactorParser
                                               '((((((((((((((((((((((1))))))))))))))))))))))' (6 - 51): org.unlaxer.parser.combinator.Choice
                                                '((((((((((((((((((((((1))))))))))))))))))))))' (6 - 51): org.unlaxer.parser.elementary.ParenthesesParser
                                                 '(' (6 - 7): org.unlaxer.parser.ascii.LeftParenthesisParser
                                                 '(((((((((((((((((((((1)))))))))))))))))))))' (7 - 50): org.unlaxer.sample.calc.parser.ExpressionParser
                                                  '(((((((((((((((((((((1)))))))))))))))))))))' (7 - 50): org.unlaxer.parser.combinator.Chain
                                                   '(((((((((((((((((((((1)))))))))))))))))))))' (7 - 50): org.unlaxer.sample.calc.parser.TermParser
                                                    '(((((((((((((((((((((1)))))))))))))))))))))' (7 - 50): org.unlaxer.parser.combinator.Chain
                                                     '(((((((((((((((((((((1)))))))))))))))))))))' (7 - 50): org.unlaxer.sample.calc.parser.FactorParser
                                                      '(((((((((((((((((((((1)))))))))))))))))))))' (7 - 50): org.unlaxer.parser.combinator.Choice
                                                       '(((((((((((((((((((((1)))))))))))))))))))))' (7 - 50): org.unlaxer.parser.elementary.ParenthesesParser
                                                        '(' (7 - 8): org.unlaxer.parser.ascii.LeftParenthesisParser
                                                        '((((((((((((((((((((1))))))))))))))))))))' (8 - 49): org.unlaxer.sample.calc.parser.ExpressionParser
                                                         '((((((((((((((((((((1))))))))))))))))))))' (8 - 49): org.unlaxer.parser.combinator.Chain
                                                          '((((((((((((((((((((1))))))))))))))))))))' (8 - 49): org.unlaxer.sample.calc.parser.TermParser
                                                           '((((((((((((((((((((1))))))))))))))))))))' (8 - 49): org.unlaxer.parser.combinator.Chain
                                                            '((((((((((((((((((((1))))))))))))))))))))' (8 - 49): org.unlaxer.sample.calc.parser.FactorParser
                                                             '((((((((((((((((((((1))))))))))))))))))))' (8 - 49): org.unlaxer.parser.combinator.Choice
                                                              '((((((((((((((((((((1))))))))))))))))))))' (8 - 49): org.unlaxer.parser.elementary.ParenthesesParser
                                                               '(' (8 - 9): org.unlaxer.parser.ascii.LeftParenthesisParser
                                                               '(((((((((((((((((((1)))))))))))))))))))' (9 - 48): org.unlaxer.sample.calc.parser.ExpressionParser
                                                                '(((((((((((((((((((1)))))))))))))))))))' (9 - 48): org.unlaxer.parser.combinator.Chain
                                                                 '(((((((((((((((((((1)))))))))))))))))))' (9 - 48): org.unlaxer.sample.calc.parser.TermParser
                                                                  '(((((((((((((((((((1)))))))))))))))))))' (9 - 48): org.unlaxer.parser.combinator.Chain
                                                                   '(((((((((((((((((((1)))))))))))))))))))' (9 - 48): org.unlaxer.sample.calc.parser.FactorParser
                                                                    '(((((((((((((((((((1)))))))))))))))))))' (9 - 48): org.unlaxer.parser.combinator.Choice
                                                                     '(((((((((((((((((((1)))))))))))))))))))' (9 - 48): org.unlaxer.parser.elementary.ParenthesesParser
                                                                      '(' (9 - 10): org.unlaxer.parser.ascii.LeftParenthesisParser
                                                                      '((((((((((((((((((1))))))))))))))))))' (10 - 47): org.unlaxer.sample.calc.parser.ExpressionParser
                                                                       '((((((((((((((((((1))))))))))))))))))' (10 - 47): org.unlaxer.parser.combinator.Chain
                                                                        '((((((((((((((((((1))))))))))))))))))' (10 - 47): org.unlaxer.sample.calc.parser.TermParser
                                                                         '((((((((((((((((((1))))))))))))))))))' (10 - 47): org.unlaxer.parser.combinator.Chain
                                                                          '((((((((((((((((((1))))))))))))))))))' (10 - 47): org.unlaxer.sample.calc.parser.FactorParser
                                                                           '((((((((((((((((((1))))))))))))))))))' (10 - 47): org.unlaxer.parser.combinator.Choice
                                                                            '((((((((((((((((((1))))))))))))))))))' (10 - 47): org.unlaxer.parser.elementary.ParenthesesParser
                                                                             '(' (10 - 11): org.unlaxer.parser.ascii.LeftParenthesisParser
                                                                             '(((((((((((((((((1)))))))))))))))))' (11 - 46): org.unlaxer.sample.calc.parser.ExpressionParser
                                                                              '(((((((((((((((((1)))))))))))))))))' (11 - 46): org.unlaxer.parser.combinator.Chain
                                                                               '(((((((((((((((((1)))))))))))))))))' (11 - 46): org.unlaxer.sample.calc.parser.TermParser
                                                                                '(((((((((((((((((1)))))))))))))))))' (11 - 46): org.unlaxer.parser.combinator.Chain
                                                                                 '(((((((((((((((((1)))))))))))))))))' (11 - 46): org.unlaxer.sample.calc.parser.FactorParser
                                                                                  '(((((((((((((((((1)))))))))))))))))' (11 - 46): org.unlaxer.parser.combinator.Choice
                                                                                   '(((((((((((((((((1)))))))))))))))))' (11 - 46): org.unlaxer.parser.elementary.ParenthesesParser
                                                                                    '(' (11 - 12): org.unlaxer.parser.ascii.LeftParenthesisParser
                                                                                    '((((((((((((((((1))))))))))))))))' (12 - 45): org.unlaxer.sample.calc.parser.ExpressionParser
                                                                                     '((((((((((((((((1))))))))))))))))' (12 - 45): org.unlaxer.parser.combinator.Chain
                                                                                      '((((((((((((((((1))))))))))))))))' (12 - 45): org.unlaxer.sample.calc.parser.TermParser
                                                                                       '((((((((((((((((1))))))))))))))))' (12 - 45): org.unlaxer.parser.combinator.Chain
                                                                                        '((((((((((((((((1))))))))))))))))' (12 - 45): org.unlaxer.sample.calc.parser.FactorParser
                                                                                         '((((((((((((((((1))))))))))))))))' (12 - 45): org.unlaxer.parser.combinator.Choice
                                                                                          '((((((((((((((((1))))))))))))))))' (12 - 45): org.unlaxer.parser.elementary.ParenthesesParser
                                                                                           '(' (12 - 13): org.unlaxer.parser.ascii.LeftParenthesisParser
                                                                                           '(((((((((((((((1)))))))))))))))' (13 - 44): org.unlaxer.sample.calc.parser.ExpressionParser
                                                                                            '(((((((((((((((1)))))))))))))))' (13 - 44): org.unlaxer.parser.combinator.Chain
                                                                                             '(((((((((((((((1)))))))))))))))' (13 - 44): org.unlaxer.sample.calc.parser.TermParser
                                                                                              '(((((((((((((((1)))))))))))))))' (13 - 44): org.unlaxer.parser.combinator.Chain
                                                                                               '(((((((((((((((1)))))))))))))))' (13 - 44): org.unlaxer.sample.calc.parser.FactorParser
                                                                                                '(((((((((((((((1)))))))))))))))' (13 - 44): org.unlaxer.parser.combinator.Choice
                                                                                                 '(((((((((((((((1)))))))))))))))' (13 - 44): org.unlaxer.parser.elementary.ParenthesesParser
                                                                                                  '(' (13 - 14): org.unlaxer.parser.ascii.LeftParenthesisParser
                                                                                                  '((((((((((((((1))))))))))))))' (14 - 43): org.unlaxer.sample.calc.parser.ExpressionParser
                                                                                                   '((((((((((((((1))))))))))))))' (14 - 43): org.unlaxer.parser.combinator.Chain
                                                                                                    '((((((((((((((1))))))))))))))' (14 - 43): org.unlaxer.sample.calc.parser.TermParser
                                                                                                     '((((((((((((((1))))))))))))))' (14 - 43): org.unlaxer.parser.combinator.Chain
                                                                                                      '((((((((((((((1))))))))))))))' (14 - 43): org.unlaxer.sample.calc.parser.FactorParser
                                                                                                       '((((((((((((((1))))))))))))))' (14 - 43): org.unlaxer.parser.combinator.Choice
                                                                                                        '((((((((((((((1))))))))))))))' (14 - 43): org.unlaxer.parser.elementary.ParenthesesParser
                                                                                                         '(' (14 - 15): org.unlaxer.parser.ascii.LeftParenthesisParser
                                                                                                         '(((((((((((((1)))))))))))))' (15 - 42): org.unlaxer.sample.calc.parser.ExpressionParser
                                                                                                          '(((((((((((((1)))))))))))))' (15 - 42): org.unlaxer.parser.combinator.Chain
                                                                                                           '(((((((((((((1)))))))))))))' (15 - 42): org.unlaxer.sample.calc.parser.TermParser
                                                                                                            '(((((((((((((1)))))))))))))' (15 - 42): org.unlaxer.parser.combinator.Chain
                                                                                                             '(((((((((((((1)))))))))))))' (15 - 42): org.unlaxer.sample.calc.parser.FactorParser
                                                                                                              '(((((((((((((1)))))))))))))' (15 - 42): org.unlaxer.parser.combinator.Choice
                                                                                                               '(((((((((((((1)))))))))))))' (15 - 42): org.unlaxer.parser.elementary.ParenthesesParser
                                                                                                                '(' (15 - 16): org.unlaxer.parser.ascii.LeftParenthesisParser
                                                                                                                '((((((((((((1))))))))))))' (16 - 41): org.unlaxer.sample.calc.parser.ExpressionParser
                                                                                                                 '((((((((((((1))))))))))))' (16 - 41): org.unlaxer.parser.combinator.Chain
                                                                                                                  '((((((((((((1))))))))))))' (16 - 41): org.unlaxer.sample.calc.parser.TermParser
                                                                                                                   '((((((((((((1))))))))))))' (16 - 41): org.unlaxer.parser.combinator.Chain
                                                                                                                    '((((((((((((1))))))))))))' (16 - 41): org.unlaxer.sample.calc.parser.FactorParser
                                                                                                                     '((((((((((((1))))))))))))' (16 - 41): org.unlaxer.parser.combinator.Choice
                                                                                                                      '((((((((((((1))))))))))))' (16 - 41): org.unlaxer.parser.elementary.ParenthesesParser
                                                                                                                       '(' (16 - 17): org.unlaxer.parser.ascii.LeftParenthesisParser
                                                                                                                       '(((((((((((1)))))))))))' (17 - 40): org.unlaxer.sample.calc.parser.ExpressionParser
                                                                                                                        '(((((((((((1)))))))))))' (17 - 40): org.unlaxer.parser.combinator.Chain
                                                                                                                         '(((((((((((1)))))))))))' (17 - 40): org.unlaxer.sample.calc.parser.TermParser
                                                                                                                          '(((((((((((1)))))))))))' (17 - 40): org.unlaxer.parser.combinator.Chain
                                                                                                                           '(((((((((((1)))))))))))' (17 - 40): org.unlaxer.sample.calc.parser.FactorParser
                                                                                                                            '(((((((((((1)))))))))))' (17 - 40): org.unlaxer.parser.combinator.Choice
                                                                                                                             '(((((((((((1)))))))))))' (17 - 40): org.unlaxer.parser.elementary.ParenthesesParser
                                                                                                                              '(' (17 - 18): org.unlaxer.parser.ascii.LeftParenthesisParser
                                                                                                                              '((((((((((1))))))))))' (18 - 39): org.unlaxer.sample.calc.parser.ExpressionParser
                                                                                                                               '((((((((((1))))))))))' (18 - 39): org.unlaxer.parser.combinator.Chain
                                                                                                                                '((((((((((1))))))))))' (18 - 39): org.unlaxer.sample.calc.parser.TermParser
                                                                                                                                 '((((((((((1))))))))))' (18 - 39): org.unlaxer.parser.combinator.Chain
                                                                                                                                  '((((((((((1))))))))))' (18 - 39): org.unlaxer.sample.calc.parser.FactorParser
                                                                                                                                   '((((((((((1))))))))))' (18 - 39): org.unlaxer.parser.combinator.Choice
                                                                                                                                    '((((((((((1))))))))))' (18 - 39): org.unlaxer.parser.elementary.ParenthesesParser
                                                                                                                                     '(' (18 - 19): org.unlaxer.parser.ascii.LeftParenthesisParser
                                                                                                                                     '(((((((((1)))))))))' (19 - 38): org.unlaxer.sample.calc.parser.ExpressionParser
                                                                                                                                      '(((((((((1)))))))))' (19 - 38): org.unlaxer.parser.combinator.Chain
                                                                                                                                       '(((((((((1)))))))))' (19 - 38): org.unlaxer.sample.calc.parser.TermParser
                                                                                                                                        '(((((((((1)))))))))' (19 - 38): org.unlaxer.parser.combinator.Chain
                                                                                                                                         '(((((((((1)))))))))' (19 - 38): org.unlaxer.sample.calc.parser.FactorParser
                                                                                                                                          '(((((((((1)))))))))' (19 - 38): org.unlaxer.parser.combinator.Choice
                                                                                                                                           '(((((((((1)))))))))' (19 - 38): org.unlaxer.parser.elementary.ParenthesesParser
                                                                                                                                            '(' (19 - 20): org.unlaxer.parser.ascii.LeftParenthesisParser
                                                                                                                                            '((((((((1))))))))' (20 - 37): org.unlaxer.sample.calc.parser.ExpressionParser
                                                                                                                                             '((((((((1))))))))' (20 - 37): org.unlaxer.parser.combinator.Chain
                                                                                                                                              '((((((((1))))))))' (20 - 37): org.unlaxer.sample.calc.parser.TermParser
                                                                                                                                               '((((((((1))))))))' (20 - 37): org.unlaxer.parser.combinator.Chain
                                                                                                                                                '((((((((1))))))))' (20 - 37): org.unlaxer.sample.calc.parser.FactorParser
                                                                                                                                                 '((((((((1))))))))' (20 - 37): org.unlaxer.parser.combinator.Choice
                                                                                                                                                  '((((((((1))))))))' (20 - 37): org.unlaxer.parser.elementary.ParenthesesParser
                                                                                                                                                   '(' (20 - 21): org.unlaxer.parser.ascii.LeftParenthesisParser
                                                                                                                                                   '(((((((1)))))))' (21 - 36): org.unlaxer.sample.calc.parser.ExpressionParser
                                                                                                                                                    '(((((((1)))))))' (21 - 36): org.unlaxer.parser.combinator.Chain
                                                                                                                                                     '(((((((1)))))))' (21 - 36): org.unlaxer.sample.calc.parser.TermParser
                                                                                                                                                      '(((((((1)))))))' (21 - 36): org.unlaxer.parser.combinator.Chain
                                                                                                                                                       '(((((((1)))))))' (21 - 36): org.unlaxer.sample.calc.parser.FactorParser
                                                                                                                                                        '(((((((1)))))))' (21 - 36): org.unlaxer.parser.combinator.Choice
                                                                                                                                                         '(((((((1)))))))' (21 - 36): org.unlaxer.parser.elementary.ParenthesesParser
                                                                                                                                                          '(' (21 - 22): org.unlaxer.parser.ascii.LeftParenthesisParser
                                                                                                                                                          '((((((1))))))' (22 - 35): org.unlaxer.sample.calc.parser.ExpressionParser
                                                                                                                                                           '((((((1))))))' (22 - 35): org.unlaxer.parser.combinator.Chain
                                                                                                                                                            '((((((1))))))' (22 - 35): org.unlaxer.sample.calc.parser.TermParser
                                                                                                                                                             '((((((1))))))' (22 - 35): org.unlaxer.parser.combinator.Chain
                                                                                                                                                              '((((((1))))))' (22 - 35): org.unlaxer.sample.calc.parser.FactorParser
                                                                                                                                                               '((((((1))))))' (22 - 35): org.unlaxer.parser.combinator.Choice
                                                                                                                                                                '((((((1))))))' (22 - 35): org.unlaxer.parser.elementary.ParenthesesParser
                                                                                                                                                                 '(' (22 - 23): org.unlaxer.parser.ascii.LeftParenthesisParser
                                                                                                                                                                 '(((((1)))))' (23 - 34): org.unlaxer.sample.calc.parser.ExpressionParser
                                                                                                                                                                  '(((((1)))))' (23 - 34): org.unlaxer.parser.combinator.Chain
                                                                                                                                                                   '(((((1)))))' (23 - 34): org.unlaxer.sample.calc.parser.TermParser
                                                                                                                                                                    '(((((1)))))' (23 - 34): org.unlaxer.parser.combinator.Chain
                                                                                                                                                                     '(((((1)))))' (23 - 34): org.unlaxer.sample.calc.parser.FactorParser
                                                                                                                                                                      '(((((1)))))' (23 - 34): org.unlaxer.parser.combinator.Choice
                                                                                                                                                                       '(((((1)))))' (23 - 34): org.unlaxer.parser.elementary.ParenthesesParser
                                                                                                                                                                        '(' (23 - 24): org.unlaxer.parser.ascii.LeftParenthesisParser
                                                                                                                                                                        '((((1))))' (24 - 33): org.unlaxer.sample.calc.parser.ExpressionParser
                                                                                                                                                                         '((((1))))' (24 - 33): org.unlaxer.parser.combinator.Chain
                                                                                                                                                                          '((((1))))' (24 - 33): org.unlaxer.sample.calc.parser.TermParser
                                                                                                                                                                           '((((1))))' (24 - 33): org.unlaxer.parser.combinator.Chain
                                                                                                                                                                            '((((1))))' (24 - 33): org.unlaxer.sample.calc.parser.FactorParser
                                                                                                                                                                             '((((1))))' (24 - 33): org.unlaxer.parser.combinator.Choice
                                                                                                                                                                              '((((1))))' (24 - 33): org.unlaxer.parser.elementary.ParenthesesParser
                                                                                                                                                                               '(' (24 - 25): org.unlaxer.parser.ascii.LeftParenthesisParser
                                                                                                                                                                               '(((1)))' (25 - 32): org.unlaxer.sample.calc.parser.ExpressionParser
                                                                                                                                                                                '(((1)))' (25 - 32): org.unlaxer.parser.combinator.Chain
                                                                                                                                                                                 '(((1)))' (25 - 32): org.unlaxer.sample.calc.parser.TermParser
                                                                                                                                                                                  '(((1)))' (25 - 32): org.unlaxer.parser.combinator.Chain
                                                                                                                                                                                   '(((1)))' (25 - 32): org.unlaxer.sample.calc.parser.FactorParser
                                                                                                                                                                                    '(((1)))' (25 - 32): org.unlaxer.parser.combinator.Choice
                                                                                                                                                                                     '(((1)))' (25 - 32): org.unlaxer.parser.elementary.ParenthesesParser
                                                                                                                                                                                      '(' (25 - 26): org.unlaxer.parser.ascii.LeftParenthesisParser
                                                                                                                                                                                      '((1))' (26 - 31): org.unlaxer.sample.calc.parser.ExpressionParser
                                                                                                                                                                                       '((1))' (26 - 31): org.unlaxer.parser.combinator.Chain
                                                                                                                                                                                        '((1))' (26 - 31): org.unlaxer.sample.calc.parser.TermParser
                                                                                                                                                                                         '((1))' (26 - 31): org.unlaxer.parser.combinator.Chain
                                                                                                                                                                                          '((1))' (26 - 31): org.unlaxer.sample.calc.parser.FactorParser
                                                                                                                                                                                           '((1))' (26 - 31): org.unlaxer.parser.combinator.Choice
                                                                                                                                                                                            '((1))' (26 - 31): org.unlaxer.parser.elementary.ParenthesesParser
                                                                                                                                                                                             '(' (26 - 27): org.unlaxer.parser.ascii.LeftParenthesisParser
                                                                                                                                                                                             '(1)' (27 - 30): org.unlaxer.sample.calc.parser.ExpressionParser
                                                                                                                                                                                              '(1)' (27 - 30): org.unlaxer.parser.combinator.Chain
                                                                                                                                                                                               '(1)' (27 - 30): org.unlaxer.sample.calc.parser.TermParser
                                                                                                                                                                                                '(1)' (27 - 30): org.unlaxer.parser.combinator.Chain
                                                                                                                                                                                                 '(1)' (27 - 30): org.unlaxer.sample.calc.parser.FactorParser
                                                                                                                                                                                                  '(1)' (27 - 30): org.unlaxer.parser.combinator.Choice
                                                                                                                                                                                                   '(1)' (27 - 30): org.unlaxer.parser.elementary.ParenthesesParser
                                                                                                                                                                                                    '(' (27 - 28): org.unlaxer.parser.ascii.LeftParenthesisParser
                                                                                                                                                                                                    '1' (28 - 29): org.unlaxer.sample.calc.parser.ExpressionParser
                                                                                                                                                                                                     '1' (28 - 29): org.unlaxer.parser.combinator.Chain
                                                                                                                                                                                                      '1' (28 - 29): org.unlaxer.sample.calc.parser.TermParser
                                                                                                                                                                                                       '1' (28 - 29): org.unlaxer.parser.combinator.Chain
                                                                                                                                                                                                        '1' (28 - 29): org.unlaxer.sample.calc.parser.FactorParser
                                                                                                                                                                                                         '1' (28 - 29): org.unlaxer.parser.combinator.Choice
                                                                                                                                                                                                          '1' (28 - 29): org.unlaxer.parser.elementary.NumberParser
                                                                                                                                                                                                           <EMPTY> (28 - 28): optional-signParser
                                                                                                                                                                                                           '1' (28 - 29): org.unlaxer.parser.combinator.Choice
                                                                                                                                                                                                            '1' (28 - 29): digits
                                                                                                                                                                                                             '1' (28 - 29): any-digit
                                                                                                                                                                                                              '1' (28 - 29): org.unlaxer.parser.posix.DigitParser
                                                                                                                                                                                                           <EMPTY> (29 - 29): org.unlaxer.parser.combinator.Optional
                                                                                                                                                                                                        <EMPTY> (29 - 29): org.unlaxer.parser.combinator.ZeroOrMore
                                                                                                                                                                                                      <EMPTY> (29 - 29): org.unlaxer.parser.combinator.ZeroOrMore
                                                                                                                                                                                                    ')' (29 - 30): org.unlaxer.parser.ascii.RightParenthesisParser
                                                                                                                                                                                                 <EMPTY> (30 - 30): org.unlaxer.parser.combinator.ZeroOrMore
                                                                                                                                                                                               <EMPTY> (30 - 30): org.unlaxer.parser.combinator.ZeroOrMore
                                                                                                                                                                                             ')' (30 - 31): org.unlaxer.parser.ascii.RightParenthesisParser
                                                                                                                                                                                          <EMPTY> (31 - 31): org.unlaxer.parser.combinator.ZeroOrMore
                                                                                                                                                                                        <EMPTY> (31 - 31): org.unlaxer.parser.combinator.ZeroOrMore
                                                                                                                                                                                      ')' (31 - 32): org.unlaxer.parser.ascii.RightParenthesisParser
                                                                                                                                                                                   <EMPTY> (32 - 32): org.unlaxer.parser.combinator.ZeroOrMore
                                                                                                                                                                                 <EMPTY> (32 - 32): org.unlaxer.parser.combinator.ZeroOrMore
                                                                                                                                                                               ')' (32 - 33): org.unlaxer.parser.ascii.RightParenthesisParser
                                                                                                                                                                            <EMPTY> (33 - 33): org.unlaxer.parser.combinator.ZeroOrMore
                                                                                                                                                                          <EMPTY> (33 - 33): org.unlaxer.parser.combinator.ZeroOrMore
                                                                                                                                                                        ')' (33 - 34): org.unlaxer.parser.ascii.RightParenthesisParser
                                                                                                                                                                     <EMPTY> (34 - 34): org.unlaxer.parser.combinator.ZeroOrMore
                                                                                                                                                                   <EMPTY> (34 - 34): org.unlaxer.parser.combinator.ZeroOrMore
                                                                                                                                                                 ')' (34 - 35): org.unlaxer.parser.ascii.RightParenthesisParser
                                                                                                                                                              <EMPTY> (35 - 35): org.unlaxer.parser.combinator.ZeroOrMore
                                                                                                                                                            <EMPTY> (35 - 35): org.unlaxer.parser.combinator.ZeroOrMore
                                                                                                                                                          ')' (35 - 36): org.unlaxer.parser.ascii.RightParenthesisParser
                                                                                                                                                       <EMPTY> (36 - 36): org.unlaxer.parser.combinator.ZeroOrMore
                                                                                                                                                     <EMPTY> (36 - 36): org.unlaxer.parser.combinator.ZeroOrMore
                                                                                                                                                   ')' (36 - 37): org.unlaxer.parser.ascii.RightParenthesisParser
                                                                                                                                                <EMPTY> (37 - 37): org.unlaxer.parser.combinator.ZeroOrMore
                                                                                                                                              <EMPTY> (37 - 37): org.unlaxer.parser.combinator.ZeroOrMore
                                                                                                                                            ')' (37 - 38): org.unlaxer.parser.ascii.RightParenthesisParser
                                                                                                                                         <EMPTY> (38 - 38): org.unlaxer.parser.combinator.ZeroOrMore
                                                                                                                                       <EMPTY> (38 - 38): org.unlaxer.parser.combinator.ZeroOrMore
                                                                                                                                     ')' (38 - 39): org.unlaxer.parser.ascii.RightParenthesisParser
                                                                                                                                  <EMPTY> (39 - 39): org.unlaxer.parser.combinator.ZeroOrMore
                                                                                                                                <EMPTY> (39 - 39): org.unlaxer.parser.combinator.ZeroOrMore
                                                                                                                              ')' (39 - 40): org.unlaxer.parser.ascii.RightParenthesisParser
                                                                                                                           <EMPTY> (40 - 40): org.unlaxer.parser.combinator.ZeroOrMore
                                                                                                                         <EMPTY> (40 - 40): org.unlaxer.parser.combinator.ZeroOrMore
                                                                                                                       ')' (40 - 41): org.unlaxer.parser.ascii.RightParenthesisParser
                                                                                                                    <EMPTY> (41 - 41): org.unlaxer.parser.combinator.ZeroOrMore
                                                                                                                  <EMPTY> (41 - 41): org.unlaxer.parser.combinator.ZeroOrMore
                                                                                                                ')' (41 - 42): org.unlaxer.parser.ascii.RightParenthesisParser
                                                                                                             <EMPTY> (42 - 42): org.unlaxer.parser.combinator.ZeroOrMore
                                                                                                           <EMPTY> (42 - 42): org.unlaxer.parser.combinator.ZeroOrMore
                                                                                                         ')' (42 - 43): org.unlaxer.parser.ascii.RightParenthesisParser
                                                                                                      <EMPTY> (43 - 43): org.unlaxer.parser.combinator.ZeroOrMore
                                                                                                    <EMPTY> (43 - 43): org.unlaxer.parser.combinator.ZeroOrMore
                                                                                                  ')' (43 - 44): org.unlaxer.parser.ascii.RightParenthesisParser
                                                                                               <EMPTY> (44 - 44): org.unlaxer.parser.combinator.ZeroOrMore
                                                                                             <EMPTY> (44 - 44): org.unlaxer.parser.combinator.ZeroOrMore
                                                                                           ')' (44 - 45): org.unlaxer.parser.ascii.RightParenthesisParser
                                                                                        <EMPTY> (45 - 45): org.unlaxer.parser.combinator.ZeroOrMore
                                                                                      <EMPTY> (45 - 45): org.unlaxer.parser.combinator.ZeroOrMore
                                                                                    ')' (45 - 46): org.unlaxer.parser.ascii.RightParenthesisParser
                                                                                 <EMPTY> (46 - 46): org.unlaxer.parser.combinator.ZeroOrMore
                                                                               <EMPTY> (46 - 46): org.unlaxer.parser.combinator.ZeroOrMore
                                                                             ')' (46 - 47): org.unlaxer.parser.ascii.RightParenthesisParser
                                                                          <EMPTY> (47 - 47): org.unlaxer.parser.combinator.ZeroOrMore
                                                                        <EMPTY> (47 - 47): org.unlaxer.parser.combinator.ZeroOrMore
                                                                      ')' (47 - 48): org.unlaxer.parser.ascii.RightParenthesisParser
                                                                   <EMPTY> (48 - 48): org.unlaxer.parser.combinator.ZeroOrMore
                                                                 <EMPTY> (48 - 48): org.unlaxer.parser.combinator.ZeroOrMore
                                                               ')' (48 - 49): org.unlaxer.parser.ascii.RightParenthesisParser
                                                            <EMPTY> (49 - 49): org.unlaxer.parser.combinator.ZeroOrMore
                                                          <EMPTY> (49 - 49): org.unlaxer.parser.combinator.ZeroOrMore
                                                        ')' (49 - 50): org.unlaxer.parser.ascii.RightParenthesisParser
                                                     <EMPTY> (50 - 50): org.unlaxer.parser.combinator.ZeroOrMore
                                                   <EMPTY> (50 - 50): org.unlaxer.parser.combinator.ZeroOrMore
                                                 ')' (50 - 51): org.unlaxer.parser.ascii.RightParenthesisParser
                                              <EMPTY> (51 - 51): org.unlaxer.parser.combinator.ZeroOrMore
                                            <EMPTY> (51 - 51): org.unlaxer.parser.combinator.ZeroOrMore
                                          ')' (51 - 52): org.unlaxer.parser.ascii.RightParenthesisParser
                                       <EMPTY> (52 - 52): org.unlaxer.parser.combinator.ZeroOrMore
                                     <EMPTY> (52 - 52): org.unlaxer.parser.combinator.ZeroOrMore
                                   ')' (52 - 53): org.unlaxer.parser.ascii.RightParenthesisParser
                                <EMPTY> (53 - 53): org.unlaxer.parser.combinator.ZeroOrMore
                              <EMPTY> (53 - 53): org.unlaxer.parser.combinator.ZeroOrMore
                            ')' (53 - 54): org.unlaxer.parser.ascii.RightParenthesisParser
                         <EMPTY> (54 - 54): org.unlaxer.parser.combinator.ZeroOrMore
                       <EMPTY> (54 - 54): org.unlaxer.parser.combinator.ZeroOrMore
                     ')' (54 - 55): org.unlaxer.parser.ascii.RightParenthesisParser
                  <EMPTY> (55 - 55): org.unlaxer.parser.combinator.ZeroOrMore
                <EMPTY> (55 - 55): org.unlaxer.parser.combinator.ZeroOrMore
              ')' (55 - 56): org.unlaxer.parser.ascii.RightParenthesisParser
           <EMPTY> (56 - 56): org.unlaxer.parser.combinator.ZeroOrMore
         <EMPTY> (56 - 56): org.unlaxer.parser.combinator.ZeroOrMore
       ')' (56 - 57): org.unlaxer.parser.ascii.RightParenthesisParser
    <EMPTY> (57 - 57): org.unlaxer.parser.combinator.ZeroOrMore
  <EMPTY> (57 - 57): org.unlaxer.parser.combinator.ZeroOrMore

