OPEN    : ' *)'
BEGIN   : position:(c:0 m:0) targetchar=' '  	| parser://org.unlaxer.vocabulary.ebnf.informally.CommentSymbol
BEGIN   : position:(c:0 m:0) targetchar=' '  	| parser://org.unlaxer.vocabulary.ebnf.informally.Comment
ROLLBACK: position:(c:0 m:0) targetchar=' '  	| parser://org.unlaxer.vocabulary.ebnf.informally.Comment | rollbacked: 
ROLLBACK: position:(c:0 m:0) targetchar=' '  	| parser://org.unlaxer.vocabulary.ebnf.informally.CommentSymbol | rollbacked: 
BEGIN   : position:(c:0 m:0) targetchar=' '  	| parser://org.unlaxer.vocabulary.ebnf.informally.CommentSymbol
BEGIN   : position:(c:0 m:0) targetchar=' '  	| parser://org.unlaxer.vocabulary.ebnf.informally.TerminalString
BEGIN   : position:(c:0 m:0) targetchar=' '  	| parser://org.unlaxer.parser.combinator.Chain
ROLLBACK: position:(c:0 m:0) targetchar=' '  	| parser://org.unlaxer.parser.combinator.Chain | rollbacked: 
ROLLBACK: position:(c:0 m:0) targetchar=' '  	| parser://org.unlaxer.vocabulary.ebnf.informally.TerminalString | rollbacked: 
BEGIN   : position:(c:0 m:0) targetchar=' '  	| parser://org.unlaxer.vocabulary.ebnf.informally.TerminalString
BEGIN   : position:(c:0 m:0) targetchar=' '  	| parser://org.unlaxer.parser.combinator.Chain
ROLLBACK: position:(c:0 m:0) targetchar=' '  	| parser://org.unlaxer.parser.combinator.Chain | rollbacked: 
ROLLBACK: position:(c:0 m:0) targetchar=' '  	| parser://org.unlaxer.vocabulary.ebnf.informally.TerminalString | rollbacked: 
ROLLBACK: position:(c:0 m:0) targetchar=' '  	| parser://org.unlaxer.vocabulary.ebnf.informally.CommentSymbol | rollbacked: 
BEGIN   : position:(c:0 m:0) targetchar=' '  	| parser://org.unlaxer.vocabulary.ebnf.informally.CommentSymbol
BEGIN   : position:(c:0 m:0) targetchar=' '  	| parser://org.unlaxer.vocabulary.ebnf.informally.SpecialSequence
ROLLBACK: position:(c:0 m:0) targetchar=' '  	| parser://org.unlaxer.vocabulary.ebnf.informally.SpecialSequence | rollbacked: 
ROLLBACK: position:(c:0 m:0) targetchar=' '  	| parser://org.unlaxer.vocabulary.ebnf.informally.CommentSymbol | rollbacked: 
BEGIN   : position:(c:0 m:0) targetchar=' '  	| parser://org.unlaxer.vocabulary.ebnf.informally.CommentSymbol
BEGIN   : position:(c:0 m:0) targetchar=' '  	| parser://comment chars
BEGIN   : position:(c:0 m:0) targetchar=' '  	| parser://comment chars
BEGIN   : position:(c:0 m:0) targetchar=' '  	| parser:/comment chars/org.unlaxer.parser.combinator.Choice
BEGIN   : position:(c:0 m:0) targetchar=' '  	| parser:/comment chars/Choice/org.unlaxer.parser.combinator.MatchOnly
ROLLBACK: position:(c:0 m:0) targetchar=' '  	| parser:/comment chars/Choice/org.unlaxer.parser.combinator.MatchOnly | rollbacked: 
ROLLBACK: position:(c:0 m:0) targetchar=' '  	| parser:/comment chars/org.unlaxer.parser.combinator.Choice | rollbacked: 
BEGIN   : position:(c:0 m:0) targetchar=' '  	| parser:/comment chars/org.unlaxer.parser.combinator.Choice
BEGIN   : position:(c:0 m:0) targetchar=' '  	| parser:/comment chars/Choice/org.unlaxer.parser.combinator.MatchOnly
ROLLBACK: position:(c:0 m:0) targetchar=' '  	| parser:/comment chars/Choice/org.unlaxer.parser.combinator.MatchOnly | rollbacked: 
ROLLBACK: position:(c:0 m:0) targetchar=' '  	| parser:/comment chars/org.unlaxer.parser.combinator.Choice | rollbacked: 
ROLLBACK: position:(c:0 m:0) targetchar=' '  	| parser://comment chars | rollbacked: 
BEGIN   : position:(c:1 m:1) targetchar='*'  	| parser://comment chars
BEGIN   : position:(c:1 m:1) targetchar='*'  	| parser:/comment chars/org.unlaxer.parser.combinator.Choice
BEGIN   : position:(c:1 m:1) targetchar='*'  	| parser:/comment chars/Choice/org.unlaxer.parser.combinator.MatchOnly
ROLLBACK: position:(c:1 m:1) targetchar='*'  	| parser:/comment chars/Choice/org.unlaxer.parser.combinator.MatchOnly | rollbacked: 
ROLLBACK: position:(c:1 m:1) targetchar='*'  	| parser:/comment chars/org.unlaxer.parser.combinator.Choice | rollbacked: 
BEGIN   : position:(c:1 m:1) targetchar='*'  	| parser:/comment chars/org.unlaxer.parser.combinator.Choice
BEGIN   : position:(c:1 m:1) targetchar='*'  	| parser:/comment chars/Choice/org.unlaxer.parser.combinator.MatchOnly
COMMIT  : position:(c:1 m:3) targetchar='*'  	| parser:/comment chars/Choice/org.unlaxer.parser.combinator.MatchOnly | committed:*) 
COMMIT  : position:(c:1 m:3) targetchar='*'  	| parser:/comment chars/org.unlaxer.parser.combinator.Choice | committed:*) 
COMMIT  : position:(c:1 m:3) targetchar='*'  	| parser:/comment chars/org.unlaxer.parser.combinator.Choice | committed:*) 
COMMIT  : position:(c:1 m:3) targetchar='*'  	| parser://comment chars | committed: *) 
COMMIT  : position:(c:1 m:3) targetchar='*'  	| parser://org.unlaxer.vocabulary.ebnf.informally.CommentSymbol | committed:  
CLOSE   : ' *)' consumed:1(2 remain) 

