START   : position:(c:0 m:0) targetchar='<'  	| parser://sample.Usage002_02_SimpleXmlTagOpenAndClose$NoMixedContentsXmlElements
START   : position:(c:0 m:0) targetchar='<'  	| parser://sample.Usage002_02_SimpleXmlTagOpenAndClose$OpenCloseTags
START   : position:(c:0 m:0) targetchar='<'  	| parser://sample.Usage002_01_SimpleXmlTag$OpenTag
START   : position:(c:1 m:1) targetchar='t'  	| parser://org.unlaxer.parser.elementary.SpaceDelimitor
END     : position:(c:1 m:1) targetchar='t'  	| parser://org.unlaxer.parser.elementary.SpaceDelimitor| status:succeeded | parsed:  
START   : position:(c:1 m:1) targetchar='t'  	| parser://sample.Usage002_01_SimpleXmlTag$TagIdentifier
START   : position:(c:1 m:1) targetchar='t'  	| parser://org.unlaxer.parser.combinator.MatchOnly
END     : position:(c:1 m:1) targetchar='t'  	| parser://org.unlaxer.parser.combinator.MatchOnly| status:failed | parsed:  
START   : position:(c:2 m:2) targetchar='e'  	| parser://org.unlaxer.parser.combinator.MatchOnly
END     : position:(c:2 m:2) targetchar='e'  	| parser://org.unlaxer.parser.combinator.MatchOnly| status:failed | parsed:  
START   : position:(c:3 m:3) targetchar='s'  	| parser://org.unlaxer.parser.combinator.MatchOnly
END     : position:(c:3 m:3) targetchar='s'  	| parser://org.unlaxer.parser.combinator.MatchOnly| status:failed | parsed:  
START   : position:(c:4 m:4) targetchar='t'  	| parser://org.unlaxer.parser.combinator.MatchOnly
END     : position:(c:4 m:4) targetchar='t'  	| parser://org.unlaxer.parser.combinator.MatchOnly| status:failed | parsed:  
START   : position:(c:5 m:5) targetchar='>'  	| parser://org.unlaxer.parser.combinator.MatchOnly
END     : position:(c:5 m:6) targetchar='>'  	| parser://org.unlaxer.parser.combinator.MatchOnly| status:succeeded | parsed:>  
END     : position:(c:5 m:6) targetchar='>'  	| parser://sample.Usage002_01_SimpleXmlTag$TagIdentifier| status:succeeded | parsed:test>  
START   : position:(c:5 m:6) targetchar='>'  	| parser://org.unlaxer.parser.elementary.SpaceDelimitor
END     : position:(c:5 m:5) targetchar='>'  	| parser://org.unlaxer.parser.elementary.SpaceDelimitor| status:succeeded | parsed:  
END     : position:(c:6 m:6) targetchar='<'  	| parser://sample.Usage002_01_SimpleXmlTag$OpenTag| status:succeeded | parsed:<test>  
START   : position:(c:6 m:6) targetchar='<'  	| parser://org.unlaxer.parser.combinator.Optional
START   : position:(c:6 m:6) targetchar='<'  	| parser:/Optional/sample.Usage002_02_SimpleXmlTagOpenAndClose$NoMixedContentsXmlElements
START   : position:(c:6 m:6) targetchar='<'  	| parser://sample.Usage002_02_SimpleXmlTagOpenAndClose$OpenCloseTags
START   : position:(c:6 m:6) targetchar='<'  	| parser://sample.Usage002_01_SimpleXmlTag$OpenTag
START   : position:(c:7 m:7) targetchar='/'  	| parser://org.unlaxer.parser.elementary.SpaceDelimitor
END     : position:(c:7 m:7) targetchar='/'  	| parser://org.unlaxer.parser.elementary.SpaceDelimitor| status:succeeded | parsed:  
START   : position:(c:7 m:7) targetchar='/'  	| parser://sample.Usage002_01_SimpleXmlTag$TagIdentifier
START   : position:(c:7 m:7) targetchar='/'  	| parser://org.unlaxer.parser.combinator.MatchOnly
END     : position:(c:7 m:8) targetchar='/'  	| parser://org.unlaxer.parser.combinator.MatchOnly| status:succeeded | parsed:/  
END     : position:(c:7 m:7) targetchar='/'  	| parser://sample.Usage002_01_SimpleXmlTag$TagIdentifier| status:failed | parsed:  
END     : position:(c:6 m:6) targetchar='<'  	| parser://sample.Usage002_01_SimpleXmlTag$OpenTag| status:failed | parsed:  
END     : position:(c:6 m:6) targetchar='<'  	| parser://sample.Usage002_02_SimpleXmlTagOpenAndClose$OpenCloseTags| status:failed | parsed:  
START   : position:(c:6 m:6) targetchar='<'  	| parser://sample.Usage002_01_SimpleXmlTag$EmptyElementTag
START   : position:(c:7 m:7) targetchar='/'  	| parser://org.unlaxer.parser.elementary.SpaceDelimitor
END     : position:(c:7 m:7) targetchar='/'  	| parser://org.unlaxer.parser.elementary.SpaceDelimitor| status:succeeded | parsed:  
START   : position:(c:7 m:7) targetchar='/'  	| parser://sample.Usage002_01_SimpleXmlTag$TagIdentifier
START   : position:(c:7 m:7) targetchar='/'  	| parser://org.unlaxer.parser.combinator.MatchOnly
END     : position:(c:7 m:8) targetchar='/'  	| parser://org.unlaxer.parser.combinator.MatchOnly| status:succeeded | parsed:/  
END     : position:(c:7 m:7) targetchar='/'  	| parser://sample.Usage002_01_SimpleXmlTag$TagIdentifier| status:failed | parsed:  
END     : position:(c:6 m:6) targetchar='<'  	| parser://sample.Usage002_01_SimpleXmlTag$EmptyElementTag| status:failed | parsed:  
END     : position:(c:6 m:6) targetchar='<'  	| parser:/Optional/sample.Usage002_02_SimpleXmlTagOpenAndClose$NoMixedContentsXmlElements| status:failed | parsed:  
END     : position:(c:6 m:6) targetchar='<'  	| parser://org.unlaxer.parser.combinator.Optional| status:succeeded | parsed:  
START   : position:(c:6 m:6) targetchar='<'  	| parser://sample.Usage002_01_SimpleXmlTag$CloseTag
START   : position:(c:7 m:7) targetchar='/'  	| parser://org.unlaxer.parser.elementary.SpaceDelimitor
END     : position:(c:7 m:7) targetchar='/'  	| parser://org.unlaxer.parser.elementary.SpaceDelimitor| status:succeeded | parsed:  
START   : position:(c:8 m:8) targetchar='t'  	| parser://org.unlaxer.parser.elementary.SpaceDelimitor
END     : position:(c:8 m:8) targetchar='t'  	| parser://org.unlaxer.parser.elementary.SpaceDelimitor| status:succeeded | parsed:  
START   : position:(c:8 m:8) targetchar='t'  	| parser://sample.Usage002_01_SimpleXmlTag$TagIdentifier
START   : position:(c:8 m:8) targetchar='t'  	| parser://org.unlaxer.parser.combinator.MatchOnly
END     : position:(c:8 m:8) targetchar='t'  	| parser://org.unlaxer.parser.combinator.MatchOnly| status:failed | parsed:  
START   : position:(c:9 m:9) targetchar='e'  	| parser://org.unlaxer.parser.combinator.MatchOnly
END     : position:(c:9 m:9) targetchar='e'  	| parser://org.unlaxer.parser.combinator.MatchOnly| status:failed | parsed:  
START   : position:(c:10 m:10) targetchar='s'  	| parser://org.unlaxer.parser.combinator.MatchOnly
END     : position:(c:10 m:10) targetchar='s'  	| parser://org.unlaxer.parser.combinator.MatchOnly| status:failed | parsed:  
START   : position:(c:11 m:11) targetchar='t'  	| parser://org.unlaxer.parser.combinator.MatchOnly
END     : position:(c:11 m:11) targetchar='t'  	| parser://org.unlaxer.parser.combinator.MatchOnly| status:failed | parsed:  
START   : position:(c:12 m:12) targetchar='2'  	| parser://org.unlaxer.parser.combinator.MatchOnly
END     : position:(c:12 m:12) targetchar='2'  	| parser://org.unlaxer.parser.combinator.MatchOnly| status:failed | parsed:  
START   : position:(c:13 m:13) targetchar='>'  	| parser://org.unlaxer.parser.combinator.MatchOnly
END     : position:(c:13 m:14) targetchar='>'  	| parser://org.unlaxer.parser.combinator.MatchOnly| status:succeeded | parsed:>  
END     : position:(c:13 m:14) targetchar='>'  	| parser://sample.Usage002_01_SimpleXmlTag$TagIdentifier| status:succeeded | parsed:test2>  
START   : position:(c:13 m:14) targetchar='>'  	| parser://org.unlaxer.parser.elementary.SpaceDelimitor
END     : position:(c:13 m:13) targetchar='>'  	| parser://org.unlaxer.parser.elementary.SpaceDelimitor| status:succeeded | parsed:  
END     : position:(c:14 m:14) targetchar=''  	| parser://sample.Usage002_01_SimpleXmlTag$CloseTag| status:succeeded | parsed:</test2>  
END     : position:(c:14 m:14) targetchar=''  	| parser://sample.Usage002_02_SimpleXmlTagOpenAndClose$OpenCloseTags| status:succeeded | parsed:<test></test2>  
END     : position:(c:14 m:14) targetchar=''  	| parser://sample.Usage002_02_SimpleXmlTagOpenAndClose$NoMixedContentsXmlElements| status:succeeded | parsed:<test></test2>  
