START   : position:(c:0 m:0) targetchar='a'  	| parser:org.unlaxer.parser.combinator.Chain
START   : position:(c:0 m:0) targetchar='a'  	| parser:org.unlaxer.parser.combinator.MatchOnly
START   : position:(c:0 m:0) targetchar='a'  	| parser:org.unlaxer.parser.combinator.OneOrMore
END     : position:(c:0 m:1) targetchar='a'  	| parser:org.unlaxer.parser.combinator.OneOrMore| status:succeeded | parsed:a  
END     : position:(c:0 m:1) targetchar='a'  	| parser:org.unlaxer.parser.combinator.MatchOnly| status:succeeded | parsed:a  
END     : position:(c:1 m:1) targetchar=''  	| parser:org.unlaxer.parser.combinator.Chain| status:succeeded | parsed:aa  
