START   : position:(c:0 m:0) targetchar='a'  	| parser:org.unlaxer.parser.combinator.Chain
START   : position:(c:0 m:0) targetchar='a'  	| parser:org.unlaxer.parser.combinator.MatchOnly
START   : position:(c:0 m:0) targetchar='a'  	| parser:org.unlaxer.parser.combinator.OneOrMore
END     : position:(c:0 m:5) targetchar='a'  	| parser:org.unlaxer.parser.combinator.OneOrMore| status:succeeded | parsed:abcba  
END     : position:(c:0 m:5) targetchar='a'  	| parser:org.unlaxer.parser.combinator.MatchOnly| status:succeeded | parsed:abcba  
END     : position:(c:5 m:5) targetchar=''  	| parser:org.unlaxer.parser.combinator.Chain| status:succeeded | parsed:abcbaabcba  
